Homework Project 2: Electric Boogaloo
…
Importing the Data

In order to analyze this dataset, we have to import the files into a format that allows us to easily modify it.

Code

obj_data <- read_tsv(here("rotten_imdb/plot.tok.gt9.5000"), col_names = "sentence", show_col_types = FALSE) |>
  mutate(sent_id = c(1:5000), .before = sentence)
subj_data <- read_tsv(here("rotten_imdb/quote.tok.gt9.5000"), col_names = "sentence", show_col_types = FALSE) |>
  mutate(sent_id = c(1:5000), .before = sentence)
obj_data
subj_data

# A tibble: 5,000 × 2
   sent_id sentence                                                             
     <int> <chr>                                                                
 1       1 "the movie begins in the past where a young boy named sam attempts t…
 2       2 "emerging from the human psyche and showing characteristics of abstr…
 3       3 "spurning her mother's insistence that she get on with her life , ma…
 4       4 "amitabh can't believe the board of directors and his mind is filled…
 5       5 "she , among others excentricities , talks to a small rock , gertrud…
 6       6 "this gives the girls a fair chance of pulling the wool over their e…
 7       7 "styled after vh1's \" behind the music , \" this mockumentary profi…
 8       8 "being blue is not his only predicament ; he also lacks the ability …
 9       9 "the killer's clues are a perversion of biblical punishments for sin…
10      10 "david is a painter with painter's block who takes a job as a waiter…
# ℹ 4,990 more rows

# A tibble: 5,000 × 2
   sent_id sentence                                                             
     <int> <chr>                                                                
 1       1 smart and alert , thirteen conversations about one thing is a small …
 2       2 color , musical bounce and warm seas lapping on island shores . and …
 3       3 it is not a mass-market entertainment but an uncompromising attempt …
 4       4 a light-hearted french film about the spiritual quest of a fashion m…
 5       5 my wife is an actress has its moments in looking at the comic effect…
 6       6 works both as an engaging drama and an incisive look at the difficul…
 7       7 even a hardened voyeur would require the patience of job to get thro…
 8       8 when perry fists a bull at the moore farm , it's only a matter of ti…
 9       9 the characters . . . are paper-thin , and their personalities underg…
10      10 the script is a tired one , with few moments of joy rising above the…
# ℹ 4,990 more rows
…
Time for Analysis!

Since we are looking at a large swath of words, we can attempt to do some analysis using tokens. But first, we will have to tokenize the sentences:

Code

obj_tokens <- obj_data  |>
  unnest_tokens(word, sentence)
subj_tokens <- subj_data |>
  unnest_tokens(word, sentence)
obj_tokens
subj_tokens

# A tibble: 112,605 × 2
   sent_id word  
     <int> <chr> 
 1       1 the   
 2       1 movie 
 3       1 begins
 4       1 in    
 5       1 the   
 6       1 past  
 7       1 where 
 8       1 a     
 9       1 young 
10       1 boy   
# ℹ 112,595 more rows

# A tibble: 103,024 × 2
   sent_id word         
     <int> <chr>        
 1       1 smart        
 2       1 and          
 3       1 alert        
 4       1 thirteen     
 5       1 conversations
 6       1 about        
 7       1 one          
 8       1 thing        
 9       1 is           
10       1 a            
# ℹ 103,014 more rows

We can see that there are 112605 tokens in our objective dataset and 103024 tokens in our subjective dataset; a difference of 9581 tokens. However, this doesn’t really tell us anything about how different the two datasets since it may be likely that there are a lot of words such as “the”, “a”, and “of” that make up the majority of these datasets’ tokens, so we will remove these words (known as stopwords) from our datasets.

Code

obj_tokens <- obj_tokens |>
  anti_join(stop_words, join_by(word == word))
subj_tokens <- subj_tokens |>
  anti_join(stop_words, join_by(word == word))
obj_tokens
subj_tokens

# A tibble: 51,848 × 2
   sent_id word    
     <int> <chr>   
 1       1 movie   
 2       1 begins  
 3       1 past    
 4       1 boy     
 5       1 named   
 6       1 sam     
 7       1 attempts
 8       1 save    
 9       1 celebi  
10       1 hunter  
# ℹ 51,838 more rows

# A tibble: 46,094 × 2
   sent_id word         
     <int> <chr>        
 1       1 smart        
 2       1 alert        
 3       1 thirteen     
 4       1 conversations
 5       1 gem          
 6       2 color        
 7       2 musical      
 8       2 bounce       
 9       2 warm         
10       2 seas         
# ℹ 46,084 more rows
…
